@startuml C4_Elements
' !include https://raw.githubusercontent.com/plantuml-stdlib/C4-PlantUML/master/C4_Container.puml

' System(systemAlias, "UDP Server", "")
' System(clientAlias, "UDP CLient", "")

' Rel(clientAlias, systemAlias, "Send data", "")
' Rel(systemAlias, clientAlias, "Reply ack", "")

    skinparam backgroundColor #EEEBDC
    skinparam handwritten true
    UDPClient -> UDPServer: UDP data
    activate UDPClient
    UDPServer -> UDPServer: Receive data & Reply to client
    UDPServer -> UDPClient: UDP data
    deactivate UDPClient
    UDPClient -> UDPClient: Receive data & Send next data
@enduml