@startuml seqlock_1PMC_msg_q
' !include https://raw.githubusercontent.com/plantuml-stdlib/C4-PlantUML/master/C4_Container.puml

' System(systemAlias, "UDP Server", "")
' System(clientAlias, "UDP CLient", "")

' Rel(clientAlias, systemAlias, "Send data", "")
' Rel(systemAlias, clientAlias, "Reply ack", "")

' https://plantuml.com/sequence-diagram
skinparam backgroundColor #EEEBDC
skinparam handwritten true

left to right direction

actor "Input thread" as in_t

actor "Output thread 1" as out_t_1
actor "Output thread 2" as out_t_2
actor "Output thread ..." as out_t_4
actor "Output thread n" as out_t_n

node q1 as "
1
--
2
--
3
--
...
--
N"

in_t --> q1

q1 --> out_t_1
q1 --> out_t_2
q1 --> out_t_4
q1 --> out_t_n


@enduml