@startuml C4_Elements
' !include https://raw.githubusercontent.com/plantuml-stdlib/C4-PlantUML/master/C4_Container.puml

' System(systemAlias, "UDP Server", "")
' System(clientAlias, "UDP CLient", "")

' Rel(clientAlias, systemAlias, "Send data", "")
' Rel(systemAlias, clientAlias, "Reply ack", "")

    skinparam backgroundColor #EEEBDC
    skinparam handwritten true
    loop 5 times
        MCastSender -> MCastReceiver: UDP data
        MCastSender -> MCastSender: Wait 1 sec
    end
@enduml